<!--<!DOCTYPE svg PUBLIC "-//W3C//DTD SVG 1.1//EN" "http://www.w3.org/Graphics/SVG/1.1/DTD/svg11.dtd">-->

<!-- Uploaded to: SVG Repo, www.svgrepo.com, Transformed by: SVG Repo Mixer Tools -->
<svg class="icon" fill="#ffffff" width="45px" height="45px" viewBox="0 0 35 35" data-name="Layer 2" id="Layer_2" xmlns="http://www.w3.org/2000/svg" stroke="#ffffff">

<g id="SVGRepo_bgCarrier" stroke-width="0"/>

<g id="SVGRepo_tracerCarrier" stroke-linecap="round" stroke-linejoin="round"/>

<g id="SVGRepo_iconCarrier">

<path d="M33.5,22.4a1.25,1.25,0,0,1-1.16-.78L26.61,7.72,20,21.68a1.25,1.25,0,1,1-2.26-1.07L25.56,4.09a1.25,1.25,0,0,1,2.28.06l6.82,16.52A1.26,1.26,0,0,1,34,22.3,1.18,1.18,0,0,1,33.5,22.4Z"/>

<path d="M30.19,16H22.57a1.25,1.25,0,0,1,0-2.5h7.62a1.25,1.25,0,0,1,0,2.5Z"/>

<path d="M3.39,31.62A1.22,1.22,0,0,1,2.34,31a1.25,1.25,0,0,1,.38-1.72c8.34-5.28,9.14-13,9.17-13.32a1.25,1.25,0,0,1,2.49.22c0,.38-.89,9.24-10.32,15.21A1.26,1.26,0,0,1,3.39,31.62Z"/>

<path d="M14.62,29.81a1,1,0,0,1-.3,0C8.19,28.25,3.39,21.23,3.19,20.93a1.25,1.25,0,1,1,2.07-1.4c0,.06,4.47,6.53,9.66,7.82a1.25,1.25,0,0,1-.3,2.46Z"/>

<path d="M16.69,16.27H1.5a1.25,1.25,0,0,1,0-2.5H16.69a1.25,1.25,0,0,1,0,2.5Z"/>

<path d="M8.68,16.27a1.24,1.24,0,0,1-1.21-1l-.84-3.46a1.25,1.25,0,1,1,2.43-.58l.84,3.46A1.26,1.26,0,0,1,9,16.24,1.43,1.43,0,0,1,8.68,16.27Z"/>

</g>

</svg>
